…
## Exercise 3

``` r
coffee_town_model <- glm(coffee_town ~ job + smoke + age, data=coffee_town_df,family=binomial) %>%
  augment(data = coffee_town_df, type.predict = "response")
```

``` r
coffee_town_model %>% 
  select(coffee_town,.fitted)
```

    ## # A tibble: 1,100 × 2
    ##    coffee_town .fitted
    ##          <dbl>   <dbl>
    ##  1           1  0.295 
    ##  2           0  0.313 
    ##  3           1  0.291 
    ##  4           0  0.0368
    ##  5           0  0.316 
    ##  6           1  0.291 
    ##  7           1  0.320 
    ##  8           1  0.0338
    ##  9           1  0.322 
    ## 10           0  0.302 
    ## # … with 1,090 more rows
…
