…
      1 n (%); Median (IQR)

Looking at the table above, we see that the majority of individuals living in Coffee Town either drink no coffee or exactly for cups of coffee a day. On the other hand, the majority of individuals not living in Coffee Town either drink exactly one, two, or three cups a coffee a day. The median age of individuals in Coffee Town is 49, while the median age of individuals not in Coffee Town is 39. The majority of individuals in Coffee Town are split evenly between having an easy job or no job at all. In contrast, the majority of individuals in Coffee Town have an easy job. The majority of individuals in Coffee Town never smoke. Likewise, the majority of individuals not in Coffee Town never smoke.

Exercise 3

coffee_town_model <- glm(coffee_town ~ job + smoke + age, data=coffee_town_df,family=binomial) %>%
  augment(data = coffee_town_df, type.predict = "response")

coffee_town_model %>% 
  select(coffee_town,.fitted)

## # A tibble: 1,100 × 2
##    coffee_town .fitted
##          <dbl>   <dbl>
##  1           1  0.295 
##  2           0  0.313 
##  3           1  0.291 
##  4           0  0.0368
##  5           0  0.316 
##  6           1  0.291 
##  7           1  0.320 
##  8           1  0.0338
##  9           1  0.322 
## 10           0  0.302 
## # … with 1,090 more rows
…
